Assignment 3, MSB104-gruppe 6 2025
…
    age == "Y25-64",       # Aldersgruppen 25–64 år
    unit == "PC",          # Enhet: prosent av befolkningen
    nchar(geo) == 4,       # Beholder kun NUTS2-nivå (fire tegn)
    substr(geo, 1, 2) %in% c("BE","NL","BG","NO"),
    isced11 != "ED3-8"
  )%>%
  mutate(edu_group = case_when(
    isced11 == "ED0-2" ~ "Low",
    isced11 %in% c("ED3_4", "ED3_4GEN", "ED3_4VOC") ~ "Medium",
    isced11 == "ED5-8" ~ "High",
    TRUE ~ NA_character_
  )) # lager tre utdanningsnivå (lav, middels, høy)
utdanning_2017

# A tibble: 105 × 9
   freq  sex   isced11 age    unit  geo   TIME_PERIOD values edu_group
   <chr> <chr> <chr>   <chr>  <chr> <chr>       <dbl>  <dbl> <chr>    
 1 A     T     ED0-2   Y25-64 PC    BE10         2017   27.1 Low      
 2 A     T     ED0-2   Y25-64 PC    BE21         2017   22.2 Low      
 3 A     T     ED0-2   Y25-64 PC    BE22         2017   22.2 Low      
 4 A     T     ED0-2   Y25-64 PC    BE23         2017   21   Low      
 5 A     T     ED0-2   Y25-64 PC    BE24         2017   14.3 Low      
 6 A     T     ED0-2   Y25-64 PC    BE25         2017   22.4 Low      
 7 A     T     ED0-2   Y25-64 PC    BE31         2017   13.3 Low      
 8 A     T     ED0-2   Y25-64 PC    BE32         2017   30.9 Low      
 9 A     T     ED0-2   Y25-64 PC    BE33         2017   30   Low      
10 A     T     ED0-2   Y25-64 PC    BE34         2017   20   Low      
# ℹ 95 more rows

# Gjør utdanningsdata om til bredt format med tre kolonner for lav, middels og høy utdanning per region
utdanning_2017_trenivå <- utdanning_2017 %>%
  select(geo, edu_group, values) %>%
  pivot_wider(names_from = edu_group, values_from = values) %>%
  rename(
    `Lav_utdanning`     = Low,
    `Middels_utdanning` = Medium,
    `Høy_utdanning`     = High
  )
utdanning_2017_trenivå

# A tibble: 35 × 4
   geo   Lav_utdanning Middels_utdanning Høy_utdanning
   <chr>         <dbl>             <dbl>         <dbl>
 1 BE10           27.1              26.3          46.6
 2 BE21           22.2              39.7          38.2
 3 BE22           22.2              42.5          35.4
 4 BE23           21                36.5          42.6
 5 BE24           14.3              35            50.7
 6 BE25           22.4              40.2          37.4
 7 BE31           13.3              29.5          57.1
 8 BE32           30.9              38            31.1
 9 BE33           30                34.4          35.6
10 BE34           20                42.9          37.1
# ℹ 25 more rows

# leser excel data_2017_b som brukt i assignment 2 del b
data_2017_b <- read_excel("/Users/liang/Desktop/msb104/msb104_a3/data_2017_b.xlsx", sheet = "data_2017_b")

# Slå sammen med hoveddatasettet (NUTS2 <-> geo)
data_2017 <- data_2017_b %>%
  left_join(utdanning_2017_trenivå, by = c("NUTS2" = "geo"))%>%
  select(-utdanning_hoy)
data_2017

# A tibble: 23 × 9
   NUTS2 country change_GDPC_pct Gini_weighted vei_tetthet andelen_over65
   <chr> <chr>             <dbl>         <dbl>       <dbl>          <dbl>
 1 BE21  BE                 2.82        0.0266      76.5             20.7
 2 BE22  BE                 3.73        0.112       43.7             20.9
 3 BE23  BE                 3.72        0.139       65.2             21.3
 4 BE24  BE                 2.72        0.0626      82.6             20.9
 5 BE25  BE                 3.10        0.0659      59.0             24.9
 6 BE32  BE                 2.92        0.0795      74.5             19.8
 7 BE33  BE                 3.48        0.0675      68.9             20.0
 8 BE34  BE                 3.41        0.0883      34.5             18.1
 9 BE35  BE                 2.44        0.0897      28.0             19.5
10 BG31  BG                12.1         0.0871       0.367           27.6
# ℹ 13 more rows
# ℹ 3 more variables: Lav_utdanning <dbl>, Middels_utdanning <dbl>,
#   Høy_utdanning <dbl>
…
